<svg width="18" height="18" viewBox="0 0 18 18" fill="none" xmlns="http://www.w3.org/2000/svg">
<path d="M4.5 8.7229H9.76154" stroke="#EFAC00" stroke-width="1.5" stroke-miterlimit="10" stroke-linecap="round" stroke-linejoin="round"/>
<path d="M4.5 12.4614H13.5" stroke="#EFAC00" stroke-width="1.5" stroke-miterlimit="10" stroke-linecap="round" stroke-linejoin="round"/>
<path d="M12.3924 4.63837H5.60774C5.12313 4.63837 4.70774 4.22298 4.70774 3.59991V2.42298C4.63851 1.79991 5.0539 1.38452 5.60774 1.38452H12.4616C12.9462 1.38452 13.3616 1.79991 13.3616 2.42298V3.73837C13.3616 4.22298 12.9462 4.63837 12.3924 4.63837Z" stroke="#EFAC00" stroke-width="1.5" stroke-miterlimit="10" stroke-linecap="round" stroke-linejoin="round"/>
<path d="M1.38477 15.2308C1.38477 15.9923 2.00784 16.6154 2.76938 16.6154H15.2309C15.9925 16.6154 16.6155 15.9923 16.6155 15.2308V4.91538C16.6155 4.15384 15.9925 3.53076 15.2309 3.53076H13.7078" stroke="#EFAC00" stroke-width="1.5" stroke-miterlimit="10" stroke-linecap="round" stroke-linejoin="round"/>
<path d="M4.63861 3.53076H2.76938C2.00784 3.53076 1.38477 4.15384 1.38477 4.91538V12.4615" stroke="#EFAC00" stroke-width="1.5" stroke-miterlimit="10" stroke-linecap="round" stroke-linejoin="round"/>
</svg>
