<svg width="20" height="21" viewBox="0 0 20 21" fill="none" xmlns="http://www.w3.org/2000/svg">
<g clip-path="url(#clip0_1451_1330)">
<path d="M12.04 5.10998L10 1.47998L1 17.52H19L13.45 7.62998" stroke="#75716B" stroke-width="1.5" stroke-miterlimit="10" stroke-linecap="round" stroke-linejoin="round"/>
<path d="M10 15.43C10.5523 15.43 11 14.9823 11 14.43C11 13.8777 10.5523 13.43 10 13.43C9.44772 13.43 9 13.8777 9 14.43C9 14.9823 9.44772 15.43 10 15.43Z" fill="#75716B"/>
<path d="M10 7.63C9.45 7.63 9 8.08 9 8.63V11.53C9 12.08 9.45 12.53 10 12.53C10.55 12.53 11 12.08 11 11.53V8.63C11 8.08 10.55 7.63 10 7.63Z" fill="#75716B"/>
</g>
<defs>
<clipPath id="clip0_1451_1330">
<rect width="20" height="20" fill="white" transform="translate(0 0.5)"/>
</clipPath>
</defs>
</svg>
