<svg width="20" height="21" viewBox="0 0 20 21" fill="none" xmlns="http://www.w3.org/2000/svg">
<path d="M14.7133 2.56057L12.3398 4.93878L15.5603 8.1529L17.9338 5.77469L14.7133 2.56057Z" stroke="#75716B" stroke-width="1.5" stroke-miterlimit="9.9996" stroke-linecap="round" stroke-linejoin="round"/>
<path d="M6.02004 11.28L12.35 4.94L15.57 8.15L7.26004 16.48L4.04004 13.26" stroke="#75716B" stroke-width="1.5" stroke-miterlimit="9.9996" stroke-linecap="round" stroke-linejoin="round"/>
<path d="M4.03957 13.25L2.05957 18.45L7.24957 16.46L4.03957 13.25Z" stroke="#75716B" stroke-width="1.5" stroke-miterlimit="10" stroke-linecap="round" stroke-linejoin="round"/>
<path d="M14.79 12.06L18.36 15.64L15.14 18.86L10 13.72" stroke="#75716B" stroke-width="1.5" stroke-miterlimit="10" stroke-linecap="round" stroke-linejoin="round"/>
<path d="M6.77965 10.51L1.63965 5.36001L4.85965 2.14001L9.99965 7.28001" stroke="#75716B" stroke-width="1.5" stroke-miterlimit="10" stroke-linecap="round" stroke-linejoin="round"/>
<path d="M6.22949 5.96999L7.45949 4.73999" stroke="#75716B" stroke-width="1.5" stroke-miterlimit="10" stroke-linecap="round" stroke-linejoin="round"/>
<path d="M14.5293 14.28L15.7593 13.05" stroke="#75716B" stroke-width="1.5" stroke-miterlimit="10" stroke-linecap="round" stroke-linejoin="round"/>
</svg>
