<svg width="60" height="60" viewBox="0 0 60 60" fill="none" xmlns="http://www.w3.org/2000/svg">
<path d="M36.12 13.8299L30 2.93994L3 51.0599H57L40.35 21.3899" stroke="#EE4056" stroke-width="3" stroke-miterlimit="10" stroke-linecap="round" stroke-linejoin="round"/>
<path d="M30 44.79C31.6569 44.79 33 43.4469 33 41.79C33 40.1332 31.6569 38.79 30 38.79C28.3431 38.79 27 40.1332 27 41.79C27 43.4469 28.3431 44.79 30 44.79Z" fill="#EE4056"/>
<path d="M30 21.3901C28.35 21.3901 27 22.7401 27 24.3901V33.0901C27 34.7401 28.35 36.0901 30 36.0901C31.65 36.0901 33 34.7401 33 33.0901V24.3901C33 22.7401 31.65 21.3901 30 21.3901Z" fill="#EE4056"/>
</svg>
