<svg width="40" height="40" viewBox="0 0 40 40" fill="none" xmlns="http://www.w3.org/2000/svg">
<rect width="40" height="40" rx="20" fill="#EE4056"/>
<path d="M11.5386 16.3076H28.4617" stroke="white" stroke-width="1.5" stroke-miterlimit="10" stroke-linecap="round" stroke-linejoin="round"/>
<path d="M17.8462 18.6152L18.3077 26.1537" stroke="white" stroke-width="1.5" stroke-miterlimit="10" stroke-linecap="round" stroke-linejoin="round"/>
<path d="M13.8462 16.3076L15.9231 28.4615H24.077L26.1539 16.3076" stroke="white" stroke-width="1.5" stroke-miterlimit="10" stroke-linecap="round" stroke-linejoin="round"/>
<path d="M21.6924 26.1537L22.1539 18.6152" stroke="white" stroke-width="1.5" stroke-miterlimit="10" stroke-linecap="round" stroke-linejoin="round"/>
<path d="M19.9999 14.3845C20.846 14.3845 21.5383 13.6922 21.5383 12.8461C21.5383 11.9999 20.846 11.3076 19.9999 11.3076C19.1537 11.3076 18.4614 11.9999 18.4614 12.8461C18.4614 13.6922 19.1537 14.3845 19.9999 14.3845Z" fill="white"/>
</svg>
