<svg width="31" height="30" viewBox="0 0 31 30" fill="none" xmlns="http://www.w3.org/2000/svg">
<path d="M26.5002 7.49995C28.0002 9.59995 28.8002 12.2 28.8002 14.9999C28.8002 22.3999 22.8002 28.2999 15.5002 28.2999C8.2002 28.2999 2.2002 22.3999 2.2002 14.9999C2.2002 7.59995 8.1002 1.69995 15.5002 1.69995C17.8002 1.69995 19.9002 2.29995 21.8002 3.29995" stroke="white" stroke-width="1.5" stroke-miterlimit="10" stroke-linecap="round" stroke-linejoin="round"/>
<path d="M9 16.5L13.8 20.8L22 9.19995" stroke="white" stroke-width="1.5" stroke-miterlimit="10" stroke-linecap="round" stroke-linejoin="round"/>
</svg>
