<svg width="40" height="40" viewBox="0 0 40 40" fill="none" xmlns="http://www.w3.org/2000/svg">
    <circle cx="20" cy="20" r="20" fill="#EE4056"/>
    <path d="M11.2 15.2693H28.8" stroke="white" stroke-width="1.5" stroke-miterlimit="10" stroke-linecap="round" stroke-linejoin="round"/>
    <path d="M26.8 17.7L25.4 28.8H20H14.6L12.9939 15.3846" stroke="white" stroke-width="1.5" stroke-miterlimit="10" stroke-linecap="round" stroke-linejoin="round"/>
    <path d="M17.2999 17.7001L17.6999 25.6001" stroke="white" stroke-width="1.5" stroke-miterlimit="10" stroke-linecap="round" stroke-linejoin="round"/>
    <path d="M22.5999 17.7001L22.2999 25.6001" stroke="white" stroke-width="1.5" stroke-miterlimit="10" stroke-linecap="round" stroke-linejoin="round"/>
    <path d="M20 13.0769C20.8497 13.0769 21.5385 12.3881 21.5385 11.5385C21.5385 10.6888 20.8497 10 20 10C19.1503 10 18.4615 10.6888 18.4615 11.5385C18.4615 12.3881 19.1503 13.0769 20 13.0769Z" fill="white"/>
</svg>
